<?xml version="1.0" encoding="UTF-8"?>
<!DOCTYPE svg PUBLIC "-//W3C//DTD SVG 1.1//EN" "http://www.w3.org/Graphics/SVG/1.1/DTD/svg11.dtd">
<!-- Creator: CorelDRAW X7 -->
<svg xmlns="http://www.w3.org/2000/svg" xml:space="preserve" width="31.0895in" height="33.9355in" version="1.1" style="shape-rendering:geometricPrecision; text-rendering:geometricPrecision; image-rendering:optimizeQuality; fill-rule:evenodd; clip-rule:evenodd"
viewBox="0 0 9372 10230"
 xmlns:xlink="http://www.w3.org/1999/xlink">
 <defs>
  <style type="text/css">
   <![CDATA[
    .str0 {stroke:#D6EBF5;stroke-width:50.2415}
    .fil16 {fill:none}
    .fil14 {fill:#009BB7}
    .fil9 {fill:#026C5B}
    .fil4 {fill:#1A2040}
    .fil2 {fill:#332965}
    .fil15 {fill:#33D18E}
    .fil12 {fill:#39FC96}
    .fil13 {fill:#43B2C5}
    .fil10 {fill:#88CBD9}
    .fil11 {fill:#D61C63}
    .fil5 {fill:#D6EBF5}
    .fil8 {fill:#E2C3C2}
    .fil6 {fill:#E5507E}
    .fil7 {fill:#ED8B83}
    .fil3 {fill:#F1B995}
    .fil1 {fill:#FFFFFD}
    .fil0 {fill:#43B2C5;fill-opacity:0.270588}
   ]]>
  </style>
 </defs>
 <g id="Layer_x0020_1">
  <metadata id="CorelCorpID_0Corel-Layer"/>
  <g id="_1884357116640">
   <path class="fil0" d="M995 5680c552,-91 713,752 148,856 -564,104 -732,-760 -148,-856zm7028 -1159c245,-93 466,120 520,303 57,193 -47,465 -295,533 -498,136 -860,-595 -225,-836zm-6120 138c-9,-63 53,-71 100,-16 -26,81 -91,73 -100,16zm-1504 26c-67,28 -99,5 -64,-62 12,-6 12,-9 38,-12 30,-2 33,22 35,48 0,2 -4,15 -4,13 0,-3 -3,8 -5,13zm1997 -3610c561,-150 754,681 243,840 -574,178 -799,-692 -243,-840zm-1435 839c544,-34 892,205 1077,509 -15,16 19,20 -42,13l-21 -17 21 17c63,63 46,35 84,122 51,24 60,28 46,103l21 93c45,41 44,41 51,163 3,62 2,124 -4,185 -12,125 -38,193 -72,298 -54,167 259,488 12,489 27,89 10,105 10,104 -1,-2 -3,10 -5,15 -80,22 -225,-10 -320,-18 -220,-17 -318,245 -839,214 -300,-17 -537,-155 -716,-349 -66,-71 -83,-116 -141,-193 -69,117 -114,703 -120,889 -46,1364 513,2638 1459,3539 220,211 844,704 1196,821 28,-82 38,-174 54,-261 9,-50 18,-93 27,-139 16,-77 34,-90 -16,-108 -293,77 -376,73 -582,-92 -140,-112 -284,-203 -334,-437 -50,-239 100,-1060 139,-1345 46,-339 234,-1648 324,-1955 53,-179 176,-398 322,-447l14 -37 79 4 667 -202c28,-50 -8,-22 82,-32 103,-32 307,-137 390,-99 7,-68 71,-159 115,-217l52 -52 76 48 -5 -213c-47,-56 -36,-42 -67,-115l-8 -2c-88,-37 -69,-16 -100,-99 -18,-48 -29,-70 -56,-124 -47,-94 -74,-172 -102,-289 -144,-55 -177,-73 -237,-235 -64,-171 -26,-256 60,-354 -6,-172 -47,-329 -87,-482 -65,-253 -45,-225 70,-397 -21,-65 -41,-56 -49,-133 -87,-86 -41,-207 37,-299l17 -20c172,-188 910,-580 1170,-428 227,-4 487,209 680,270 -25,-122 -71,-151 14,-248 197,-26 390,241 439,406 54,158 34,267 -11,415 121,150 177,159 108,424 -40,153 -90,323 -95,492 184,153 74,513 -125,576 -17,156 -64,243 -123,364l-13 12 -16 22 -130 108 -20 16 -14 12c-21,64 2,35 -40,55 -17,21 -6,11 -29,34 -9,10 -23,20 -33,28l11 204 93 -54c40,82 109,177 157,254l384 117c57,4 47,3 75,33l682 207 67 -9 15 41c309,103 386,680 446,1071 64,420 402,2409 341,2675 -54,236 -190,328 -332,440 -198,158 -315,150 -605,85 -4,169 79,373 89,546l22 14c9,-91 58,-81 146,-130 408,-223 758,-477 1088,-803 1067,-1053 1531,-2439 1354,-3975 -22,-194 -131,-726 -209,-855 -410,588 -1070,811 -1731,464 -135,-71 -119,-119 -320,-100 -62,6 -117,13 -183,19 -120,11 -107,16 -200,-13l16 -84 -87 -3c-117,-161 193,-381 89,-619 -75,-172 -93,-395 -75,-586 7,-69 1,-117 55,-145l3 76c4,-8 11,16 12,-40 1,-78 5,-5 -15,-36l35 -132 -17 -34c34,-64 6,-36 60,-77l14 16 -14 -16c64,-96 9,-72 103,-145l17 -21 -17 21c-52,-5 -15,15 -43,-17 159,-274 478,-524 886,-605 -82,-122 -548,-409 -718,-509 -879,-517 -1956,-715 -3010,-559 -1085,161 -2105,733 -2785,1507l-277 328c21,34 -31,28 37,27z"/>
   <path class="fil1" d="M6636 8400c290,65 407,73 605,-85 142,-112 278,-204 332,-440 61,-266 -277,-2255 -341,-2675 -60,-391 -137,-968 -446,-1071 -162,187 -184,1034 -190,1340 -9,474 -46,1030 -24,1496 99,37 105,70 249,99 84,16 222,23 270,75l-99 13c-27,-3 -72,-14 -98,-20 65,39 306,172 336,228l-26 5c-68,2 -491,-267 -551,-299 -107,-56 -191,-115 -287,-172 -125,-76 -234,-120 -244,-195 112,13 282,178 390,211 54,-500 -7,-1580 68,-2193 14,-113 31,-222 55,-329 19,-81 71,-217 69,-291l-682 -207c-15,48 167,762 195,882 -132,120 -316,223 -451,338 48,115 212,247 295,341 -37,113 -290,459 -349,626 93,25 368,33 403,98 44,81 -11,148 -75,168 -81,24 -164,9 -245,0 26,200 -18,159 37,257 57,-2 34,-12 35,20 34,-7 27,-16 31,12 29,-10 25,-17 20,12l165 92c-2,186 -78,329 -171,416 -68,63 -242,193 -346,221 -51,58 -249,154 -339,145 9,-99 112,-247 153,-317 -25,-15 -9,-5 -33,-23l-58 -52c-37,-31 -42,-43 -108,-43 -93,7 -82,6 -122,79 -24,44 -41,79 -64,119 -37,64 -96,182 -145,222l46 389 160 950 112 611 1774 -1 -195 -492 -22 -14 -686 -625c-99,-89 -584,-532 -668,-655l177 100c255,180 472,325 754,476l334 158z"/>
   <path class="fil1" d="M2685 4094c-28,62 36,207 56,294 126,553 108,1948 113,2533 77,-35 137,-79 211,-122 119,-68 132,-113 193,-82 -28,69 10,17 -65,65l-898 534c-51,32 -93,68 -147,44 40,-92 137,-70 320,-222 -77,9 -129,41 -180,1 71,-74 352,-44 510,-183 19,-226 -1,-537 -4,-771 -7,-556 18,-1423 -145,-1927 -16,-49 -22,-90 -57,-131 -146,49 -269,268 -322,447 -90,307 -278,1616 -324,1955 -39,285 -189,1106 -139,1345 50,234 194,325 334,437 206,165 289,169 582,92l366 -165c320,-177 828,-548 1007,-635 -25,37 -123,116 -173,166l-1283 1223 -197 465 1774 -2 106 -593c33,-119 62,-354 92,-528 14,-81 28,-167 43,-253 12,-73 15,-208 53,-261 -14,-105 28,-189 11,-312 -52,-89 -93,-157 -148,-255 -15,-27 -55,-109 -72,-130 -51,-66 -54,-23 -150,-59l-71 74c-34,27 -53,43 -82,63 47,83 139,210 152,317 -71,6 -196,-52 -264,-89 -18,-10 -23,-13 -36,-22 -30,-22 -15,-10 -35,-32 -73,-6 -304,-180 -350,-225 -101,-97 -165,-223 -173,-422 65,-38 141,-77 193,-105l72 -39c0,-33 -6,-23 28,-12 -28,-114 -5,-132 -6,-231 -162,18 -358,39 -319,-172 115,-62 260,-60 408,-88 -39,-151 -309,-516 -348,-630l295 -344c-145,-103 -277,-212 -441,-317 -5,-81 148,-813 177,-898l-667 202z"/>
   <path class="fil1" d="M7919 1984c-5,-29 -10,-22 21,-16 -4,-29 -9,-22 20,-19 -5,-29 -11,-23 17,-20 -6,-28 -10,-20 19,-16 -4,-30 -11,-24 18,-19 -4,-30 -11,-24 18,-18 -4,-30 -10,-23 20,-18 -7,-32 -11,-25 20,-14 -3,-30 -9,-23 22,-17 -10,-34 -19,-30 14,-24 -8,-29 -13,-23 17,-19 -5,-29 -11,-22 18,-19 -5,-28 -11,-22 17,-18 -3,-30 -9,-25 20,-14 -3,-35 -9,-22 32,-26 92,-11 169,118 227,177 54,54 178,143 177,234l-20 31c6,27 12,23 -14,17 1,27 7,20 -21,18 3,28 9,22 -18,17 2,28 8,21 -19,21 5,27 11,22 -16,18 1,27 7,21 -21,17 5,28 11,23 -17,19 3,27 8,19 -19,20 3,25 9,19 -16,18l-20 18c1,27 8,22 -18,17 1,27 7,20 -19,19 1,26 8,19 -18,20 2,32 10,29 -19,17 51,38 258,255 280,311 -20,83 -131,168 -186,223 -50,50 -136,156 -204,177 -110,-27 -229,-205 -330,-272 2,29 9,23 -19,19 4,27 9,19 -19,20 4,25 10,19 -15,19l-18 18c-2,25 5,20 -21,16 1,27 8,22 -17,20 1,27 7,20 -20,18 3,27 9,20 -18,18 3,27 9,21 -18,20 3,25 8,19 -18,17 1,27 7,20 -20,17 3,28 10,22 -17,20 2,27 8,20 -19,17 2,30 7,22 -22,10 -31,34 -39,47 -71,2 -53,-16 -362,-306 -361,-379 3,-36 -8,-29 23,-30 -11,-30 -19,-25 11,-22 -2,-28 -8,-22 20,-18 -6,-29 -11,-23 18,-17 -5,-31 -11,-25 19,-17 -4,-31 -11,-25 18,-19 -3,-29 -10,-22 19,-21 -7,-28 -12,-22 18,-17 -4,-29 -11,-24 17,-19 -4,-30 -9,-22 21,-13 -3,-33 -9,-25 23,-16 -9,-34 -18,-29 16,-24 -10,-30 -17,-25 14,-20 -4,-30 -10,-24 19,-16 -3,-31 -10,-24 21,-21 -147,-275 -478,-198 -96,-534 67,-58 126,-165 218,-191 63,0 212,191 312,283zm-1031 -263l-17 21c-94,73 -39,49 -103,145l14 16c-10,47 -5,86 -57,95l-35 132c20,31 16,-42 15,36 -1,56 -8,32 -12,40 -30,280 -16,427 80,665 74,185 -109,376 -135,566l517 -43 13 48c87,43 134,104 247,124 57,1 98,8 119,64l89 5c334,7 413,73 759,-52 1177,-424 1034,-2288 -320,-2419 -262,-25 -531,36 -726,144 -154,85 -378,279 -448,413z"/>
   <path class="fil1" d="M1696 3359c-1,314 -73,243 -770,243 -143,0 -398,45 -431,-87l-4 -998c23,-165 220,-122 380,-122 171,0 343,1 514,0 387,-1 312,-42 311,964zm-314 661l54 -9 24 -42c75,-10 7,-5 34,12 13,-6 45,-23 47,-24 22,-9 41,-13 68,-24 49,-21 71,-39 118,-68l25 -65 430 36c-58,-320 -179,-253 -89,-503 112,-306 8,-493 54,-579l-21 -93c-56,-25 -61,-55 -46,-103 -38,-87 -21,-59 -84,-122l-21 -17c-120,-155 -190,-244 -385,-348 -974,-518 -2041,710 -1243,1628 401,463 967,286 1035,321z"/>
   <path class="fil2" d="M3486 1097c51,27 83,160 531,290 224,65 514,115 763,62 283,-60 897,-203 1013,-509 27,-74 12,-121 50,-162 -49,-165 -242,-432 -439,-406 -85,97 -39,126 -14,248 100,150 -66,202 -206,217 -67,-78 -45,-140 -221,-288 -228,-192 -315,-157 -253,-199 -260,-152 -998,240 -1170,428l-17 20c-78,92 -124,213 -37,299z"/>
   <path class="fil3" d="M5438 3191l-20 16 -14 12 14 -12 20 -16 130 -108 16 -22 13 -12 -13 12 -16 22c-48,39 -60,63 -130,108zm282 -506c199,-63 309,-423 125,-576l-83 65 5 12c62,21 144,69 114,143 -49,-52 -26,-61 -91,-82 -5,79 42,131 6,218 -23,54 -82,112 -110,136l-18 -70c-37,-45 -57,-57 -44,-140 -25,25 -4,-9 -21,36l-31 145c-27,119 -45,106 -78,180 -10,23 -64,401 -71,428 30,-20 26,-15 56,-40l48 -45c23,-26 55,-70 82,-119 32,-58 41,-81 57,-144 19,-71 13,-106 54,-147zm-86 -361c-44,-46 -6,6 -27,-49 -8,-21 -7,-29 -12,-50 -23,-114 -38,-105 -66,-203 -41,-142 -34,-186 -34,-334 -244,-196 -253,-147 -533,0 -398,208 -349,25 -596,-28 -60,92 -73,205 -64,342 -149,-22 -163,-197 -123,-348 -82,-15 -56,-24 -137,11 -56,25 -78,35 -117,68 -5,57 12,77 -24,131 -12,94 -35,174 -67,254 -52,133 -14,151 -40,238 38,186 54,260 139,396 111,-13 209,-23 311,-56 88,-29 186,-80 282,-105 322,-87 414,71 626,93 -105,-149 -67,-378 99,-314 56,21 164,315 -98,310 74,56 220,58 309,73 136,-216 71,-225 142,-372l30 -57zm-1843 127l-68 80 -19 48c-1,-2 -7,7 -10,11 -121,-153 -114,-106 -77,-342 -106,35 -35,21 -103,78 -23,-75 53,-122 116,-142l5 -10 -83 -65c-86,98 -124,183 -60,354 60,162 93,180 237,235 28,117 55,195 102,289 27,54 38,76 56,124 31,83 12,62 100,99 -32,-135 -49,-250 -68,-401 -10,-79 -47,-89 -75,-164 -25,-67 -29,-127 -53,-194zm-5 -41c6,-31 14,-26 -14,-25l14 25zm477 269c-103,3 -148,-6 -159,-111 -8,-82 -7,-172 59,-197 180,-72 197,192 100,308zm921 -648c75,-2 168,21 197,93 -86,-4 -129,-33 -226,-5 -97,27 -117,77 -185,-11 44,-44 135,-75 214,-77zm-991 0c43,2 90,14 126,27 95,33 70,44 74,70 -93,57 -88,8 -186,-13 -85,-18 -138,4 -215,12 12,-38 0,-21 25,-46 36,-35 120,-52 176,-50z"/>
   <path class="fil1" d="M4450 4488c-170,34 -471,23 -526,172 -38,104 -108,794 93,867 75,27 198,49 286,61 339,47 631,39 954,-35 112,-26 176,-32 203,-132 37,-141 93,-777 -89,-849 -234,-91 -701,-129 -921,-84z"/>
   <path class="fil1" d="M3814 5249c-22,-137 -1,-577 62,-680 141,-232 1416,-196 1592,-47 143,122 116,839 42,992 -43,90 -116,90 -261,122 -355,78 -705,73 -1063,12 -348,-60 -318,-72 -372,-399zm-380 -1389c-61,29 -34,-6 -74,192 -40,198 -139,551 -144,725 159,82 298,243 417,279l9 -167 31 -215 134 -17c-32,253 -50,433 -13,696 40,280 154,287 416,334l515 41c178,-1 352,-21 517,-55 198,-41 321,-56 330,-259 47,-301 35,-454 1,-753l139 2 25 195 14 210 411 -292c-2,-113 -176,-871 -215,-919l-384 -117 -107 481c7,54 62,90 96,149l31 44 3 9c48,52 84,127 94,200 -202,-26 -105,-64 -210,-137 -158,-108 -745,-127 -934,-121 -937,65 -504,221 -835,256 17,-79 60,-169 105,-217l3 -16 20 -16 13 -22 18 -23 71 -108 -107 -458c-83,-38 -287,67 -390,99z"/>
   <path class="fil4" d="M3486 1097c8,77 28,68 49,133 -115,172 -135,144 -70,397 40,153 81,310 87,482l83 65 26 -6 15 17 39 35 31 47 48 89c26,-87 -12,-105 40,-238 32,-80 55,-160 67,-254 15,-201 -55,-151 90,-249 101,-67 117,-91 233,-35l-45 74c-40,151 -26,326 123,348 -9,-137 4,-250 64,-342 247,53 198,236 596,28 280,-147 289,-196 533,0 0,148 -7,192 34,334 28,98 43,89 66,203 5,21 4,29 12,50 21,55 -17,3 27,49 7,-58 -5,-28 27,-87 34,-52 21,-41 77,-68l24 5 83 -65c5,-169 55,-339 95,-492 69,-265 13,-274 -108,-424 45,-148 65,-257 11,-415 -38,41 -23,88 -50,162 -116,306 -730,449 -1013,509 -249,53 -539,3 -763,-62 -448,-130 -480,-263 -531,-290z"/>
   <path class="fil3" d="M4559 6660c-38,-23 -23,-20 -19,26 37,0 31,8 19,-26l86 35 4 103c-53,21 49,15 -53,15 -98,0 -69,-66 -68,-80 -50,43 -43,77 -77,150l-68 123c-3,3 -9,8 -12,11 -3,3 -8,7 -13,11 78,-5 79,-15 127,16l54 -20c80,-20 95,-3 149,-87 50,69 89,85 213,88l-10 72 33 -75c82,4 75,3 133,28 -2,75 -144,299 -151,305 -47,41 14,34 -32,6 -20,41 -43,103 -24,142 49,-40 108,-158 145,-222 23,-40 40,-75 64,-119 40,-73 29,-72 122,-79 16,-28 -21,-16 56,-28 18,-177 15,-212 -188,-405 -28,-27 -10,-11 -36,-30 -9,74 -57,87 -137,70 14,64 100,311 152,321 -135,-6 -112,-334 -219,-385 -89,-42 -87,41 -121,86 -35,-49 -26,-101 -89,-89 -61,11 -28,-15 -40,37zm685 -185l-113 -14c51,81 -11,118 -80,153 -43,-65 -76,-71 -41,-180 81,-18 47,-25 103,23l9 -92c71,-20 86,-25 147,9 0,1 29,-7 -19,107 60,28 136,60 201,82 40,13 66,16 101,26 56,17 38,33 49,48 223,25 98,-77 231,-37l35 20c-7,35 -9,22 31,12l20 12c-65,96 -158,190 -241,291 -47,56 -72,87 -124,151 -36,44 -88,105 -120,163 29,56 65,99 133,124 104,-28 278,-158 346,-221 93,-87 169,-230 171,-416l-165 -92c5,-29 9,-22 -20,-12 -4,-28 3,-19 -31,-12 -1,-32 22,-22 -35,-20 -55,-98 -11,-57 -37,-257 81,9 164,24 245,0 64,-20 119,-87 75,-168 -35,-65 -310,-73 -403,-98 59,-167 312,-513 349,-626 -83,-94 -247,-226 -295,-341 135,-115 319,-218 451,-338 -28,-120 -210,-834 -195,-882 -28,-30 -18,-29 -75,-33 39,48 213,806 215,919l-411 292 -14 -210 -14 328c57,-23 273,258 286,286l-332 582c-328,9 -280,-111 -648,122 -32,52 -24,59 -73,99l5 36 -18 111c51,-38 41,-27 109,-57 77,-34 31,-38 95,-70 81,-42 181,16 276,16 43,-73 28,-119 91,-184l45 50c86,118 40,52 133,126 25,19 15,9 33,29 -203,-17 -308,33 -362,4 -150,-81 -215,-52 -289,69 0,-1 -8,-31 -91,2 -55,129 31,174 104,259l196 225 140 54c128,6 223,-100 171,-214l-50 -95c-1,-2 -3,-8 -4,-9 -24,-67 -242,-41 -296,-152zm-282 67l20 30c-7,32 -15,26 16,26l-16 -26c6,-38 16,-30 -20,-30zm-48 -203c-118,-4 -201,88 -199,203 1,49 -15,61 -31,100 109,-76 83,-7 140,-84 40,-54 11,-93 125,-85 -5,-15 -17,-31 -19,-34l-7 -18c-16,-70 33,-23 -9,-82zm-60 236c77,-41 37,-42 105,-30 -35,-96 -102,-70 -105,30 -2,3 -6,4 -6,9 0,4 -4,8 -4,9 11,47 -8,2 17,27l-7 -45zm5 74c-5,37 -15,30 17,31l-17 -31zm-130 158l1 -105c30,-19 34,-28 82,-30 109,106 30,151 -83,135z"/>
   <path class="fil5" d="M4492 3595l29 17c83,-55 181,14 366,-36 97,-27 160,-94 188,-108 69,-34 26,-17 50,-5l-26 10 -26 32 -16 17 16 -17 26 -32 26 -10 19 -12c-22,-47 -20,15 3,-26l142 -127c22,25 32,-25 13,38 10,-8 24,-18 33,-28 23,-23 12,-13 29,-34 -34,16 -13,-13 -51,28 50,-78 68,-108 92,-237 17,-86 35,-168 29,-268 -157,-10 -249,-30 -379,-81 -524,-205 -468,-23 -994,73 -81,15 -142,-9 -64,270l39 147c26,89 28,49 3,83 -17,-76 -21,-56 -44,-77 31,73 20,59 67,115l36 17c-64,-110 -32,12 -24,-50 1,-8 11,-7 15,-11 15,23 1,5 23,28 66,67 353,260 417,272l-37 12z"/>
   <path class="fil3" d="M4334 6593c-49,5 -67,-3 -90,-39 -45,-73 -16,-76 23,-111 -102,38 -164,88 -170,-73 98,-27 173,-50 170,73 49,-14 65,-14 106,2l3 98c81,-59 25,-208 -84,-128 -27,-158 -148,-127 -267,-87 -83,28 -249,2 -369,0 34,-31 75,-46 117,-85 40,-37 59,-80 90,-123l90 190c96,3 176,-56 266,-21 67,26 28,37 93,70 30,15 24,7 55,19l68 35 -18 -104c-20,-64 -46,-111 -73,-166l-12 30c-157,-177 -351,-131 -619,-117l-344 -605c94,-76 177,-191 276,-284l-3 -278 -9 167c-119,-36 -258,-197 -417,-279 5,-174 104,-527 144,-725 40,-198 13,-163 74,-192 -90,10 -54,-18 -82,32 -29,85 -182,817 -177,898 164,105 296,214 441,317l-295 344c39,114 309,479 348,630 -148,28 -293,26 -408,88 -39,211 157,190 319,172 1,99 -22,117 6,231 -34,-11 -28,-21 -28,12l28 -12c119,147 179,44 252,13 54,-22 99,-23 156,-47 49,-20 92,-33 139,-51 -51,57 -206,100 -315,119 32,144 -88,93 -39,228 44,119 182,137 285,82 73,-39 24,-27 125,-129l125 -153c19,-32 4,-1 20,-41zm-182 471c96,36 99,-7 150,59 17,21 57,103 72,130 55,98 96,166 148,255l-22 -233 10 106 -189 -315 46 -30c32,-96 107,-230 136,-344 -85,17 -102,-7 -147,-65l21 -35c-44,0 -35,-9 -21,35l-36 34c-66,69 -179,162 -185,254 -3,42 -12,88 17,149zm253 -519l-10 27 -16 25c31,0 24,7 16,-25 32,4 21,7 10,-27l123 32 -20 -80c-71,-2 -76,0 -103,48zm-51 32c34,-4 27,6 25,-27 -30,0 -20,-7 -25,27z"/>
   <path class="fil1" d="M1003 3169c-37,-62 -54,-155 -78,-233 -56,72 -20,85 -147,75 19,-53 3,-15 37,-44 39,-33 -2,33 47,-40 34,-51 9,-57 64,-110 40,41 24,19 46,91l26 86c26,62 4,12 20,37 52,-75 87,-271 165,-315 61,81 31,148 92,244 92,-11 143,-73 131,71 -62,15 -93,-12 -186,-20 -14,-68 -21,-120 -60,-173 -18,55 -43,108 -69,172 -28,67 -42,126 -88,159zm-371 153c72,71 282,40 404,40 619,0 542,83 542,-371 0,-540 66,-472 -413,-472 -618,0 -558,-69 -558,362 0,123 -36,351 25,441z"/>
   <path class="fil6" d="M8329 2875c-13,-91 -4,-22 17,-49 24,-6 37,7 34,33 -30,24 36,21 -51,16zm-117 -5c-7,-12 -44,21 -13,-42 7,-14 -29,-29 28,-14 78,21 6,45 -15,56zm159 -154c0,67 -41,29 -61,0 8,-40 61,-54 61,0zm-839 -440c18,-72 169,-218 240,-249 63,27 486,435 528,524 -27,61 -182,202 -235,245 -60,-18 -489,-462 -533,-520zm-23 -178c30,67 -1,18 -12,39 -55,-23 -59,2 -19,-61 37,15 15,-15 31,22zm120 -92c-52,9 -23,18 -50,-24 5,-28 22,-26 52,-25l6 26c0,2 -3,14 -3,12 1,-3 -4,7 -5,11zm-151 -67c41,37 20,-8 29,57l-58 -3c-4,-66 -12,-22 29,-54zm7 487c-31,-3 -24,-10 -21,21 -29,-8 -23,-14 -19,16 -31,-5 -24,-10 -14,20 -34,-5 -25,-10 -16,24 -32,-9 -26,-17 -23,16 -30,-9 -25,-17 -21,13 -28,-5 -21,-10 -17,19 -30,-5 -25,-11 -18,17 -29,-1 -22,-8 -19,21 -29,-6 -22,-12 -18,19 -30,-8 -24,-14 -19,17 -29,-6 -24,-12 -18,17 -28,-4 -22,-10 -20,18 -30,-3 -22,-8 -11,22 -31,1 -20,-6 -23,30 42,0 34,10 23,-30l11 -22c30,2 25,10 20,-18 28,3 24,10 18,-17 29,5 23,11 19,-17 29,7 21,12 18,-19 33,7 26,13 19,-21 27,1 22,8 18,-17 28,5 21,10 17,-19l21 -13c38,9 35,20 23,-16 37,11 26,14 16,-24l14 -20c28,5 22,11 19,-16 38,8 31,16 21,-21 55,20 67,57 108,102 36,38 65,62 102,99 47,46 177,167 206,217 -29,-3 -23,-10 -19,19 -30,-5 -23,-11 -19,20l-15 19 -18 18 -21 16c-26,-3 -19,-8 -17,20 -28,-2 -22,-9 -20,18 -27,-3 -21,-9 -18,18 -26,-2 -20,-7 -18,20 -25,-2 -19,-8 -18,17 -28,-1 -23,-8 -20,17 -26,-2 -19,-8 -17,20 -26,-1 -20,-8 -19,17l-22 10 -71 2c32,45 40,32 71,-2 29,12 24,20 22,-10 27,3 21,10 19,-17 27,2 20,8 17,-20 27,3 21,10 20,-17 26,2 21,8 18,-17 27,1 21,7 18,-20 27,2 21,9 18,-18 27,2 21,9 20,-18 25,2 18,7 17,-20 26,4 19,9 21,-16l18 -18c25,0 19,6 15,-19 28,-1 23,7 19,-20 28,4 21,10 19,-19 101,67 220,245 330,272 68,-21 154,-127 204,-177 55,-55 166,-140 186,-223 -22,-56 -229,-273 -280,-311 29,12 21,15 19,-17 26,-1 19,6 18,-20 26,1 20,8 19,-19 26,5 19,10 18,-17l20 -18c25,1 19,7 16,-18 27,-1 22,7 19,-20 28,4 22,9 17,-19 28,4 22,10 21,-17 27,4 21,9 16,-18 27,0 21,7 19,-21 27,5 21,11 18,-17 28,2 22,9 21,-18 26,6 20,10 14,-17l20 -31c-35,0 -25,-8 -20,31l-14 17c-31,-6 -25,-13 -21,18l-18 17c-32,-5 -24,-11 -19,21l-16 18c-31,-4 -26,-12 -21,17 -26,-4 -19,-9 -17,19 -29,-3 -23,-10 -19,20l-16 18c-26,-1 -20,-7 -20,18l-18 17c-28,-4 -21,-10 -19,19 -27,-1 -20,-7 -18,20 -33,0 -33,-10 -19,17 -122,-151 -296,-273 -422,-421 31,10 24,16 21,-16 31,5 25,12 20,-19 29,4 23,10 17,-20 29,3 24,11 19,-16 28,4 22,10 18,-19 28,5 22,11 18,-18 32,6 27,14 20,-18 28,5 24,13 20,-14 38,12 34,20 22,-17 31,8 21,11 14,-24 29,5 22,11 17,-19 29,4 23,11 18,-19 27,4 21,9 17,-18l20 -14c43,10 32,19 32,-26 -41,4 -35,-9 -32,26 -29,-11 -23,-16 -20,14 -28,-4 -22,-10 -17,18 -29,-3 -23,-10 -18,19 -30,-4 -25,-10 -17,19 -33,-6 -24,-10 -14,24 -31,-6 -25,-13 -22,17 -31,-11 -27,-18 -20,14 -30,-5 -24,-12 -20,18 -29,-6 -22,-12 -18,18 -29,-5 -22,-11 -18,19 -29,-4 -25,-12 -19,16 -28,-3 -22,-9 -17,20 -29,-3 -24,-10 -20,19 -31,-6 -26,-13 -21,16 -100,-92 -249,-283 -312,-283 -92,26 -151,133 -218,191 -382,336 -51,259 96,534z"/>
   <path class="fil6" d="M1165 3443c1,2 82,22 -19,65 0,0 -75,-26 19,-65zm-192 26c41,-33 37,-21 64,-22 -6,54 22,46 -23,56 -73,17 -25,-19 -41,-34zm-187 42c-30,18 41,19 -44,19 -64,-1 -34,-8 -47,-14 -48,-140 133,-131 91,-5zm704 -8c-40,2 -95,-2 -48,-50 41,-42 47,15 48,50zm-215 -16c10,-31 -6,-46 37,-45 43,1 29,30 27,54l-27 7c-37,-7 -12,4 -37,-16zm-643 -165c-61,-90 -25,-318 -25,-441 0,-431 -60,-362 558,-362 479,0 413,-68 413,472 0,454 77,371 -542,371 -122,0 -332,31 -404,-40zm1064 37c1,-1006 76,-965 -311,-964 -171,1 -343,0 -514,0 -160,0 -357,-43 -380,122l4 998c33,132 288,87 431,87 697,0 769,71 770,-243z"/>
   <path class="fil7" d="M4715 6542l-52 -2 13 86c-40,-21 -64,-30 -123,-29 -1,-43 -9,-90 -5,-106 -29,9 -50,-18 -120,-20 36,-93 23,-2 30,-57 1,-8 -8,-72 -10,-92l-4 -20 -27 7 18 104 -68 -35c-31,-12 -25,-4 -55,-19 -65,-33 -26,-44 -93,-70 -90,-35 -170,24 -266,21l-90 -190c-31,43 -50,86 -90,123 -42,39 -83,54 -117,85 120,2 286,28 369,0 119,-40 240,-71 267,87 109,-80 165,69 84,128l3 7c2,33 9,23 -25,27l-20 16c-16,40 -1,9 -20,41l-125 153c-101,102 -52,90 -125,129 -103,55 -241,37 -285,-82 -49,-135 71,-84 39,-228 109,-19 264,-62 315,-119 -47,18 -90,31 -139,51 -57,24 -102,25 -156,47 -73,31 -133,134 -252,-13l-28 12 -72 39c-30,58 5,45 82,150 116,160 294,330 388,483 51,-73 19,-53 82,-106 43,-37 72,-62 114,-86 -29,-61 -20,-107 -17,-149 6,-92 119,-185 185,-254l36 -34c-14,-44 -23,-35 21,-35l2 5 16 -25 10 -27c27,-48 32,-50 103,-48l20 80 -25 115c-29,114 -104,248 -136,344l-9 -8c5,-4 10,-8 13,-11 3,-3 9,-8 12,-11l68 -123c34,-73 27,-107 77,-150l12 -47c-4,-46 -19,-49 19,-26 12,-52 -21,-26 40,-37 63,-12 54,40 89,89 34,-45 32,-128 121,-86 107,51 84,379 219,385 -52,-10 -138,-257 -152,-321l0 -10c-32,-1 -22,6 -17,-31l2 -29c-25,-25 -6,20 -17,-27 0,-1 4,-5 4,-9 0,-5 4,-6 6,-9 3,-100 70,-126 105,-30l3 -3c36,0 26,-8 20,30l16 26 15 22c26,19 8,3 36,30 203,193 206,228 188,405 39,51 57,53 103,94 26,23 25,24 45,48 33,39 5,26 48,52 32,-58 84,-119 120,-163 52,-64 77,-95 124,-151 83,-101 176,-195 241,-291l-20 -12c-40,10 -38,23 -31,-12l-35 -20c-133,-40 -8,62 -231,37 -11,-15 7,-31 -49,-48 -35,-10 -61,-13 -101,-26 -65,-22 -141,-54 -201,-82l-6 -6c54,111 272,85 296,152 1,1 3,7 4,9l50 95c52,114 -43,220 -171,214l-140 -54 -196 -225c-73,-85 -159,-130 -104,-259 83,-33 91,-3 91,-2 74,-121 139,-150 289,-69 54,29 159,-21 362,-4 -18,-20 -8,-10 -33,-29 -93,-74 -47,-8 -133,-126l-45 -50c-63,65 -48,111 -91,184 -95,0 -195,-58 -276,-16 -64,32 -18,36 -95,70 -68,30 -58,19 -109,57l18 -111 -47 28c42,59 -7,12 9,82l7 18c2,3 14,19 19,34 -114,-8 -85,31 -125,85 -57,77 -31,8 -140,84 16,-39 32,-51 31,-100z"/>
   <path class="fil2" d="M4323 8862c5,-2 23,-8 27,-9 24,-6 20,-5 46,-9 47,-6 34,3 88,-11 -13,29 -18,24 12,18 -13,46 -18,34 29,20 0,-34 8,-25 -29,-20 11,-36 22,-38 -12,-18 14,-111 -14,-203 39,-246 68,-44 281,-30 352,0l22 248c-35,-18 -25,-18 -15,18 -35,-4 -27,-13 -27,19 44,13 39,25 27,-19 34,5 30,12 15,-18l159 7 -160 -950c-75,27 -27,-1 -86,50l-122 144c-33,-54 -58,-79 -106,-125 -56,-53 -64,-53 -71,-141 -38,53 -41,188 -53,261 -15,86 -29,172 -43,253 -30,174 -59,409 -92,528z"/>
   <path class="fil5" d="M4450 4488c220,-45 687,-7 921,84 182,72 126,708 89,849 -27,100 -91,106 -203,132 -323,74 -615,82 -954,35 -88,-12 -211,-34 -286,-61 -201,-73 -131,-763 -93,-867 55,-149 356,-138 526,-172zm-636 761c54,327 24,339 372,399 358,61 708,66 1063,-12 145,-32 218,-32 261,-122 74,-153 101,-870 -42,-992 -176,-149 -1451,-185 -1592,47 -63,103 -84,543 -62,680z"/>
   <path class="fil4" d="M4485 7044l15 231 22 233c17,123 -25,207 -11,312 7,88 15,88 71,141 48,46 73,71 106,125l122 -144c59,-51 11,-23 86,-50l-46 -389c-19,-39 4,-101 24,-142l17 -264 10 -72c-124,-3 -163,-19 -213,-88 -54,84 -69,67 -149,87l-54 20z"/>
   <path class="fil1" d="M5723 5186c-8,75 -18,125 -58,173 -28,102 -179,314 -229,362 -59,56 -250,186 -362,231l-45 224c368,-233 320,-113 648,-122l332 -582c-13,-28 -229,-309 -286,-286z"/>
   <path class="fil1" d="M4344 6143l-37 -191c-179,-68 -327,-190 -425,-300 -60,-67 -98,-131 -142,-225 -38,-81 -59,-188 -95,-260 -99,93 -182,208 -276,284l344 605c268,-14 462,-60 619,117l12 -30z"/>
   <path class="fil8" d="M2723 8403c50,18 32,31 16,108 -9,46 -18,89 -27,139 -16,87 -26,179 -54,261l-18 81 1283 -1223c50,-50 148,-129 173,-166 -179,87 -687,458 -1007,635l-366 165z"/>
   <path class="fil8" d="M6725 8946c-10,-173 -93,-377 -89,-546l-334 -158c-282,-151 -499,-296 -754,-476l-177 -100c84,123 569,566 668,655l686 625z"/>
   <path class="fil9" d="M4267 4258c3,-16 7,-47 12,-59 21,-46 3,-17 42,-46 27,53 58,49 -54,105zm142 -289l72 3c-27,46 -93,101 -144,136l-240 201c-104,94 -177,23 -265,159 -37,-37 -45,55 -26,-64l36 -54c27,0 19,6 18,-23 33,-21 62,-38 95,-69 24,-21 47,-46 77,-70 57,-45 131,-78 165,-147 -47,25 -84,51 -133,85 -66,47 -62,65 -133,93l-71 108 -18 23 -13 22 -20 16 -3 16c-45,48 -88,138 -105,217 331,-35 -102,-191 835,-256 26,-46 2,-5 42,-31 125,-82 30,-61 106,-91l-34 111 94 -1c14,-29 -11,-35 25,-88 2,-3 7,-8 9,-10 0,-1 73,-12 14,-185 43,4 37,10 66,20 128,46 32,-1 160,1l-9 -52 -14 -53c-12,-35 5,-18 -62,-39 -41,-12 -81,-16 -123,-23l-242 0c-26,4 -66,7 -90,13l-69 32z"/>
   <path class="fil7" d="M4067 3540l248 192c53,38 76,41 132,88 25,20 35,30 59,51l62 53 242 0c148,-139 334,-260 503,-384l-11 -204c-36,44 -110,94 -158,115l-19 12 -26 10 -26 32 -16 17c-188,113 -262,123 -536,90l-29 -17c-86,-17 -326,-198 -394,-251l-36 -17 5 213z"/>
   <path class="fil4" d="M7714 1120c-408,81 -727,331 -886,605 28,32 -9,12 43,17l17 -21c70,-134 294,-328 448,-413 195,-108 464,-169 726,-144 1354,131 1497,1995 320,2419 -346,125 -425,59 -759,52 -25,84 548,199 1102,-185 244,-169 492,-512 516,-953 46,-841 -652,-1487 -1527,-1377z"/>
   <path class="fil1" d="M7532 2276c44,58 473,502 533,520 53,-43 208,-184 235,-245 -42,-89 -465,-497 -528,-524 -71,31 -222,177 -240,249z"/>
   <path class="fil10" d="M926 6311l324 -326c26,-37 25,-54 98,-77 117,134 70,348 -31,447 -104,102 -331,157 -462,32l71 -76zm-140 12c-231,-367 148,-724 481,-500 -57,145 -397,413 -481,500zm209 -643c-584,96 -416,960 148,856 565,-104 404,-947 -148,-856z"/>
   <path class="fil2" d="M3824 3761l107 458c71,-28 67,-46 133,-93 49,-34 86,-60 133,-85 59,-28 132,-59 212,-72l69 -32c24,-6 64,-9 90,-13l-62 -53c-24,-21 -34,-31 -59,-51 -56,-47 -79,-50 -132,-88l-248 -192 -76 -48 -52 52c-44,58 -108,149 -115,217z"/>
   <path class="fil10" d="M8054 5072c-6,-31 -11,-24 21,-15l26 -23 213 -226 38 -43c48,-40 -13,-18 62,-31 99,175 65,335 -41,455 -124,139 -289,118 -460,44 26,-80 87,-127 141,-161zm-209 70c-221,-246 57,-723 488,-491 -32,81 -434,460 -488,491zm178 -621c-635,241 -273,972 225,836 248,-68 352,-340 295,-533 -54,-183 -275,-396 -520,-303z"/>
   <path class="fil10" d="M2427 1629c-1,-26 -8,-20 17,-19l19 -18c-2,-30 -10,-25 18,-19 -3,-26 -8,-19 19,-18l15 -21c-4,-27 -8,-18 22,-15 -4,-25 -9,-18 18,-18l18 -19 19 -18c-1,-27 -8,-21 17,-19 1,-26 -5,-19 22,-15 -1,-30 -9,-27 18,-19l22 -14c0,-25 -6,-19 21,-17 -2,-31 -7,-22 26,-12l75 -78c214,369 -154,706 -495,498 33,-69 83,-127 129,-159zm-198 75c-222,-292 76,-700 491,-492 -46,125 -386,430 -491,492zm167 -629c-556,148 -331,1018 243,840 511,-159 318,-990 -243,-840z"/>
   <path class="fil11" d="M8359 2137c-45,-9 -34,0 -50,-45 37,-34 18,-17 66,-7l-16 52zm26 -173c-26,49 1,59 -61,18 34,-36 -39,-4 23,-31 64,-29 19,2 38,13zm-142 48c-61,-3 -27,14 -56,-30 5,-28 23,-26 48,-28 11,26 34,-43 8,58zm-63 -279l-20 14c4,27 10,22 -17,18 5,30 11,23 -18,19 5,30 12,24 -17,19 7,35 17,32 -14,24 12,37 16,29 -22,17 4,27 8,19 -20,14 7,32 12,24 -20,18 4,29 10,23 -18,18 4,29 10,23 -18,19 5,27 10,19 -19,16 6,30 12,24 -17,20 5,31 11,24 -20,19 3,32 10,26 -21,16 126,148 300,270 422,421 -14,-27 -14,-17 19,-17 -2,-27 -9,-21 18,-20 -2,-29 -9,-23 19,-19l18 -17c0,-25 -6,-19 20,-18l16 -18c-4,-30 -10,-23 19,-20 -2,-28 -9,-23 17,-19 -5,-29 -10,-21 21,-17l16 -18c-5,-32 -13,-26 19,-21l18 -17c-4,-31 -10,-24 21,-18l14 -17c-5,-39 -15,-31 20,-31 1,-91 -123,-180 -177,-234 -58,-59 -135,-188 -227,-177 0,45 11,36 -32,26z"/>
   <path class="fil11" d="M7581 2870c5,-29 3,-99 50,-51 47,47 -22,46 -50,51zm-103 -53c31,25 26,4 25,53l-49 8c-8,-64 -29,-32 24,-61zm26 -135c35,71 25,50 -31,68 -33,-62 -37,-57 31,-68zm-40 -235c3,27 9,21 -19,16l-14 20c10,38 21,35 -16,24 12,36 15,25 -23,16l-21 13c4,29 11,24 -17,19 4,25 9,18 -18,17 7,34 14,28 -19,21 3,31 11,26 -18,19 4,28 10,22 -19,17 6,27 10,20 -18,17 5,28 10,20 -20,18l-11 22c11,40 19,30 -23,30 -1,73 308,363 361,379l71 -2 22 -10c-1,-25 -7,-18 19,-17 -2,-28 -9,-22 17,-20 -3,-25 -8,-18 20,-17 -1,-25 -7,-19 18,-17 -2,-27 -8,-22 18,-20 -3,-27 -9,-21 18,-18 -2,-27 -8,-20 20,-18 -2,-28 -9,-23 17,-20l21 -16 18 -18 15 -19c-4,-31 -11,-25 19,-20 -4,-29 -10,-22 19,-19 -29,-50 -159,-171 -206,-217 -37,-37 -66,-61 -102,-99 -41,-45 -53,-82 -108,-102 10,37 17,29 -21,21z"/>
   <path class="fil4" d="M1382 4020c-68,-35 -634,142 -1035,-321 -798,-918 269,-2146 1243,-1628 195,104 265,193 385,348l21 17c61,7 27,3 42,-13 -185,-304 -533,-543 -1077,-509 -300,91 -452,100 -709,404 -460,547 -227,1557 633,1740 110,24 446,70 497,-38z"/>
   <path class="fil8" d="M2592 4127c35,41 41,82 57,131 163,504 138,1371 145,1927 3,234 23,545 4,771 -158,139 -439,109 -510,183 51,40 103,8 180,-1 -183,152 -280,130 -320,222 54,24 96,-12 147,-44l898 -534c75,-48 37,4 65,-65 -61,-31 -74,14 -193,82 -74,43 -134,87 -211,122 -5,-585 13,-1980 -113,-2533 -20,-87 -84,-232 -56,-294l-79 -4 -14 37z"/>
   <path class="fil3" d="M3816 7375c54,-31 91,-70 140,-119 -94,-153 -272,-323 -388,-483 -77,-105 -112,-92 -82,-150 -52,28 -128,67 -193,105 8,199 72,325 173,422 46,45 277,219 350,225z"/>
   <path class="fil8" d="M6786 4129l-15 -41 -67 9c2,74 -50,210 -69,291 -24,107 -41,216 -55,329 -75,613 -14,1693 -68,2193 -108,-33 -278,-198 -390,-211 10,75 119,119 244,195 96,57 180,116 287,172 60,32 483,301 551,299l26 -5c-30,-56 -271,-189 -336,-228 26,6 71,17 98,20l99 -13c-48,-52 -186,-59 -270,-75 -144,-29 -150,-62 -249,-99 -22,-466 15,-1022 24,-1496 6,-306 28,-1153 190,-1340z"/>
   <path class="fil1" d="M5624 2391l52 -141 19 -14 2 -18c29,6 24,12 17,-16l21 2c14,-27 -14,-25 32,-18l-5 -12 -24 -5 -24 33c-26,-4 -21,-10 -17,16l-36 19c-32,59 -20,29 -27,87l-30 57c-71,147 -6,156 -142,372 -89,-15 -235,-17 -309,-73l-1 4c-212,-22 -304,-180 -626,-93 -96,25 -194,76 -282,105 -102,33 -200,43 -311,56 -85,-136 -101,-210 -139,-396l-48 -89 -31 -47 -39 -35 -15 -17 -26 6 -5 10 62 25 15 20 24 50 41 106c28,-1 20,-6 14,25l5 41c24,67 28,127 53,194 28,75 65,85 75,164 19,151 36,266 68,401l8 2c23,21 27,1 44,77 25,-34 23,6 -3,-83l-39 -147c-78,-279 -17,-255 64,-270 526,-96 470,-278 994,-73 130,51 222,71 379,81 6,100 -12,182 -29,268 -24,129 -42,159 -92,237 38,-41 17,-12 51,-28 42,-20 19,9 40,-55l14 -12 20 -16c70,-45 82,-69 130,-108l16 -22 13 -12c59,-121 106,-208 123,-364 -41,41 -35,76 -54,147 -16,63 -25,86 -57,144 -27,49 -59,93 -82,119l-48 45c-30,25 -26,20 -56,40 7,-27 61,-405 71,-428 33,-74 51,-61 78,-180l31 -145c17,-45 -4,-11 21,-36zm-480 1060c48,-21 122,-71 158,-115 19,-63 9,-13 -13,-38l-142 127c-23,41 -25,-21 -3,26zm-623 161c274,33 348,23 536,-90l16 -17 26 -32 26 -10c-24,-12 19,-29 -50,5 -28,14 -91,81 -188,108 -185,50 -283,-19 -366,36zm-423 -268c68,53 308,234 394,251l37 -12c-64,-12 -351,-205 -417,-272 -22,-23 -8,-5 -23,-28 -4,4 -14,3 -15,11 -8,62 -40,-60 24,50z"/>
   <path class="fil12" d="M5355 4163c-156,44 -182,-1 -330,30 4,-87 12,-94 -16,-154l9 52c-128,-2 -32,45 -160,-1 -29,-10 -23,-16 -66,-20 59,173 -14,184 -14,185 -2,2 -7,7 -9,10 -36,53 -11,59 -25,88l-94 1 34 -111c-76,30 19,9 -106,91 -40,26 -16,-15 -42,31 189,-6 776,13 934,121 105,73 8,111 210,137 -10,-73 -46,-148 -94,-200 -69,-56 -60,-18 -105,-59l-74 -127c-28,-66 -8,-19 -52,-74zm197 207l31 44 -31 -44z"/>
   <path class="fil9" d="M4735 5973c12,-80 45,-87 103,-121 -6,40 -8,54 -29,86 -35,54 -16,45 -74,35zm837 -559c-9,203 -132,218 -330,259 -165,34 -339,54 -517,55 -68,70 -37,51 -25,145 -25,27 -38,30 -62,61 -17,23 -38,64 -46,84 126,11 222,7 335,-24l147 -42c112,-45 303,-175 362,-231 50,-48 201,-260 229,-362l-22 15c-3,2 -8,5 -11,6 -62,35 1,-48 -60,34z"/>
   <path class="fil4" d="M4444 6302l41 28c106,29 179,95 178,210l52 2c-2,-115 81,-207 199,-203l47 -28 -5 -36 -29 -281c-113,31 -209,35 -335,24l-151 -8c26,82 -33,196 3,292z"/>
   <path class="fil9" d="M3642 4889l3 278c36,72 57,179 95,260 44,94 82,158 142,225 98,110 246,232 425,300l68 30c-73,-84 -44,-34 -70,-142 -25,-101 -68,-65 -95,-153 -262,-47 -376,-54 -416,-334 -37,-263 -19,-443 13,-696l-134 17 -31 215z"/>
   <path class="fil1" d="M5150 3841c151,-7 329,124 52,211 -61,-59 -109,-141 -52,-211zm-155 145l14 53c28,60 20,67 16,154 148,-31 174,14 330,-30l8 -10c169,-96 146,-334 -22,-419 -188,-95 -359,56 -346,252z"/>
   <path class="fil2" d="M5313 3540c-169,124 -355,245 -503,384 42,7 82,11 123,23 67,21 50,4 62,39 -13,-196 158,-347 346,-252 168,85 191,323 22,419 59,32 54,46 93,68l107 -481c-48,-77 -117,-172 -157,-254l-93 54z"/>
   <path class="fil4" d="M5390 620c-193,-61 -453,-274 -680,-270 -62,42 25,7 253,199 176,148 154,210 221,288 140,-15 306,-67 206,-217z"/>
   <path class="fil13" d="M885 5939c88,-21 14,13 115,27 14,-62 -24,-68 36,-110 59,23 45,14 53,90 52,-49 -8,-20 67,-50 49,-20 -66,-1 36,-8 -28,83 -191,216 -259,286 -42,44 -33,58 -90,57 -10,-71 -5,-55 52,-76 -39,-30 -59,-23 -84,-62 46,-82 19,-18 100,-55l-26 -99zm-99 384c84,-87 424,-355 481,-500 -333,-224 -712,133 -481,500z"/>
   <path class="fil13" d="M8047 4792c23,-32 3,-7 18,-42l11 -25c15,-32 -14,-3 26,-39 48,24 47,28 47,92 4,-3 8,-9 11,-12l35 -31c4,-2 9,-5 14,-8l49 -17c-34,94 -323,339 -363,356 3,-97 -18,-54 59,-92l-49 -24c-42,-30 5,30 -30,-31 27,-57 33,-26 97,-55 -24,-27 -24,-5 -32,-57l8 -44c51,-7 31,10 99,29zm-202 350c54,-31 456,-410 488,-491 -431,-232 -709,245 -488,491z"/>
   <path class="fil13" d="M2427 1629l17 -19c27,1 22,8 19,-18 26,0 20,6 18,-19 28,6 21,11 19,-18 26,1 18,7 15,-21l22 -15c26,5 19,9 18,-18l18 -19 19 -18 17 -19 22 -15c29,3 24,10 18,-19 29,7 23,13 22,-14 27,2 22,9 21,-17l26 -12c20,37 27,-13 13,41l-52 65c74,6 58,-15 80,49 -38,47 -8,33 -89,33 34,33 98,118 -6,100 -14,-2 -31,-17 -80,-30 -16,50 -3,67 -20,120 -115,-16 -35,-19 -96,-92 -89,25 4,15 -88,53 25,-70 13,-17 47,-78zm291 -261c-33,-10 -28,-19 -26,12 -27,-2 -21,-8 -21,17l-22 14c-27,-8 -19,-11 -18,19 -27,-4 -21,-11 -22,15 -25,-2 -18,-8 -17,19l-19 18 -18 19c-27,0 -22,-7 -18,18 -30,-3 -26,-12 -22,15l-15 21c-27,-1 -22,-8 -19,18 -28,-6 -20,-11 -18,19l-19 18c-25,-1 -18,-7 -17,19 -46,32 -96,90 -129,159 341,208 709,-129 495,-498l-75 78z"/>
   <path class="fil13" d="M8054 5072l21 -15c36,8 26,15 26,-23l-26 23c-32,-9 -27,-16 -21,15 -54,34 -115,81 -141,161 171,74 336,95 460,-44 106,-120 140,-280 41,-455 -75,13 -14,-9 -62,31l-38 43c38,26 50,-11 20,62 0,1 -41,30 -42,30 70,40 50,-27 83,55 -22,51 -50,32 -94,58 37,12 37,-2 49,41 14,54 -36,41 -64,34 -51,-12 37,-5 -55,-19l-9 40c-25,79 -6,54 -45,73 -77,-42 -13,-50 -73,-94 -86,29 6,23 -88,53l58 -69z"/>
   <path class="fil13" d="M2282 1622c8,-83 1,-56 68,-92 -97,-21 -72,5 -93,-62l98 -37c-25,-49 -73,-54 -35,-95 17,-20 -34,-24 44,-10 57,11 -13,6 74,34 31,-84 -27,-66 48,-112 99,34 11,-1 55,84 33,-43 14,-65 76,-54 29,66 -95,144 -214,272 -82,87 -66,66 -121,72zm-53 82c105,-62 445,-367 491,-492 -415,-208 -713,200 -491,492z"/>
   <path class="fil13" d="M1250 5985c93,43 20,61 -23,90l23 7c63,28 47,16 65,48 -26,39 -4,12 -43,34l-54 20c26,14 92,47 30,79 -44,22 -38,-8 -102,-21 -48,94 35,68 -55,112 -106,-54 18,-73 -76,-85 -95,-11 42,32 -89,42l-71 76c131,125 358,70 462,-32 101,-99 148,-313 31,-447 -73,23 -72,40 -98,77z"/>
   <path class="fil12" d="M4375 5982l66 28 151 8c8,-20 29,-61 46,-84 24,-31 37,-34 62,-61 -12,-94 -43,-75 25,-145l-515 -41c27,88 70,52 95,153 26,108 -3,58 70,142z"/>
   <path class="fil4" d="M6708 3483l460 -41 -13 -48 -517 43c26,-190 209,-381 135,-566 -96,-238 -110,-385 -80,-665l-3 -76c-54,28 -48,76 -55,145 -18,191 0,414 75,586 104,238 -206,458 -89,619l87 3z"/>
   <path class="fil12" d="M5572 5414c61,-82 -2,1 60,-34 3,-1 8,-4 11,-6l22 -15c40,-48 50,-98 58,-173l14 -328 -25 -195 -139 -2c34,299 46,452 -1,753z"/>
   <path class="fil12" d="M4197 4041c-34,69 -108,102 -165,147 -30,24 -53,49 -77,70 -33,31 -62,48 -95,69 1,29 9,23 -18,23l-36 54c-19,119 -11,27 26,64 88,-136 161,-65 265,-159l240 -201c51,-35 117,-90 144,-136l-72 -3c-80,13 -153,44 -212,72zm-388 347l20 -16 -20 16z"/>
   <path class="fil1" d="M4584 8649l210 -8c16,145 29,163 -106,163 -134,-1 -114,-19 -104,-155zm-100 184c34,-20 23,-18 12,18 37,-5 29,-14 29,20l330 1c0,-32 -8,-23 27,-19 -10,-36 -20,-36 15,-18l-22 -248c-71,-30 -284,-44 -352,0 -53,43 -25,135 -39,246z"/>
   <path class="fil4" d="M1727 3865c3,-34 25,-11 77,-7 41,3 76,8 115,12 74,7 141,12 215,19 247,-1 -66,-322 -12,-489 34,-105 60,-173 72,-298 6,-61 7,-123 4,-185 -7,-122 -6,-122 -51,-163 -46,86 58,273 -54,579 -90,250 31,183 89,503l-430 -36 -25 65z"/>
   <path class="fil11" d="M1003 3169c46,-33 60,-92 88,-159 26,-64 51,-117 69,-172 39,53 46,105 60,173 93,8 124,35 186,20 12,-144 -39,-82 -131,-71 -61,-96 -31,-163 -92,-244 -78,44 -113,240 -165,315 -16,-25 6,25 -20,-37l-26 -86c-22,-72 -6,-50 -46,-91 -55,53 -30,59 -64,110 -49,73 -8,7 -47,40 -34,29 -18,-9 -37,44 127,10 91,-3 147,-75 24,78 41,171 78,233z"/>
   <path class="fil1" d="M7642 10168c18,-31 26,-181 22,-224 -6,-61 20,-90 -56,-77 -70,12 -35,-23 -44,77 -7,74 30,173 -40,198 -81,29 -80,-57 -79,-120 3,-308 -141,-163 -97,90 26,149 239,144 294,56z"/>
   <path class="fil14" d="M2282 1622c55,-6 39,15 121,-72 119,-128 243,-206 214,-272 -62,-11 -43,11 -76,54 -44,-85 44,-50 -55,-84 -75,46 -17,28 -48,112 -87,-28 -17,-23 -74,-34 -78,-14 -27,-10 -44,10 -38,41 10,46 35,95l-98 37c21,67 -4,41 93,62 -67,36 -60,9 -68,92z"/>
   <path class="fil4" d="M4263 2679c97,-116 80,-380 -100,-308 -66,25 -67,115 -59,197 11,105 56,114 159,111z"/>
   <path class="fil4" d="M5152 2684l1 -4c262,5 154,-289 98,-310 -166,-64 -204,165 -99,314z"/>
   <path class="fil8" d="M5566 7373c-68,-25 -104,-68 -133,-124 -43,-26 -15,-13 -48,-52 -20,-24 -19,-25 -45,-48 -46,-41 -64,-43 -103,-94 -77,12 -40,0 -56,28 66,0 71,12 108,43l58 52c24,18 8,8 33,23 -41,70 -144,218 -153,317 90,9 288,-87 339,-145z"/>
   <path class="fil14" d="M2692 1380c1,26 6,19 -21,17 1,27 7,21 -22,14 6,29 11,22 -18,19l-22 15 -17 19 -19 18 -18 19c1,27 8,23 -18,18l-22 15c3,28 11,22 -15,21 2,29 9,24 -19,18 2,25 8,19 -18,19 3,26 8,19 -19,18l-17 19c-34,61 -22,8 -47,78 92,-38 -1,-28 88,-53 61,73 -19,76 96,92 17,-53 4,-70 20,-120 49,13 66,28 80,30 104,18 40,-67 6,-100 81,0 51,14 89,-33 -22,-64 -6,-43 -80,-49l52 -65c14,-54 7,-4 -13,-41l-26 12z"/>
   <path class="fil14" d="M1000 5966c-101,-14 -27,-48 -115,-27l26 99c-81,37 -54,-27 -100,55 25,39 45,32 84,62 -57,21 -62,5 -52,76 57,1 48,-13 90,-57 68,-70 231,-203 259,-286 -102,7 13,-12 -36,8 -75,30 -15,1 -67,50 -8,-76 6,-67 -53,-90 -60,42 -22,48 -36,110z"/>
   <path class="fil8" d="M3956 7256c-49,49 -86,88 -140,119 20,22 5,10 35,32 13,9 18,12 36,22 68,37 193,95 264,89 -13,-107 -105,-234 -152,-317 29,-20 48,-36 82,-63l71 -74c-42,24 -71,49 -114,86 -63,53 -31,33 -82,106z"/>
   <path class="fil14" d="M8047 4792c-68,-19 -48,-36 -99,-29l-8 44c8,52 8,30 32,57 -64,29 -70,-2 -97,55 35,61 -12,1 30,31l49 24c-77,38 -56,-5 -59,92 40,-17 329,-262 363,-356l-49 17c-5,3 -10,6 -14,8l-35 31c-3,3 -7,9 -11,12 0,-64 1,-68 -47,-92 -40,36 -11,7 -26,39l-11 25c-15,35 5,10 -18,42z"/>
   <path class="fil14" d="M926 6311c131,-10 -6,-53 89,-42 94,12 -30,31 76,85 90,-44 7,-18 55,-112 64,13 58,43 102,21 62,-32 -4,-65 -30,-79l54 -20c39,-22 17,5 43,-34 -18,-32 -2,-20 -65,-48l-23 -7c43,-29 116,-47 23,-90l-324 326z"/>
   <path class="fil14" d="M8101 5034c0,38 10,31 -26,23l-21 15 -58 69c94,-30 2,-24 88,-53 60,44 -4,52 73,94 39,-19 20,6 45,-73l9 -40c92,14 4,7 55,19 28,7 78,20 64,-34 -12,-43 -12,-29 -49,-41 44,-26 72,-7 94,-58 -33,-82 -13,-15 -83,-55 1,0 42,-29 42,-30 30,-73 18,-36 -20,-62l-213 226z"/>
   <path class="fil1" d="M5244 6475l6 6c48,-114 19,-106 19,-107 -61,-34 -76,-29 -147,-9l-9 92c-56,-48 -22,-41 -103,-23 -35,109 -2,115 41,180 69,-35 131,-72 80,-153l113 14z"/>
   <path class="fil3" d="M4663 6540c1,-115 -72,-181 -178,-210l-37 -8c2,20 11,84 10,92 -7,55 6,-36 -30,57 70,2 91,29 120,20 -4,16 4,63 5,106 59,-1 83,8 123,29l-13 -86z"/>
   <path class="fil1" d="M4334 6593l20 -16c5,-34 -5,-27 25,-27l-3 -7 -3 -98c-41,-16 -57,-16 -106,-2 3,-123 -72,-100 -170,-73 6,161 68,111 170,73 -39,35 -68,38 -23,111 23,36 41,44 90,39z"/>
   <path class="fil7" d="M5661 2237l36 -19c-4,-26 -9,-20 17,-16l24 -33c-56,27 -43,16 -77,68zm7 294l18 70c28,-24 87,-82 110,-136 36,-87 -11,-139 -6,-218 65,21 42,30 91,82 30,-74 -52,-122 -114,-143 -46,-7 -18,-9 -32,18 17,28 -11,94 -21,161 -20,137 3,140 -46,166zm27 -295l-19 14 19 -14z"/>
   <path class="fil1" d="M4891 7097l-17 264c46,28 -15,35 32,-6 7,-6 149,-230 151,-305 -58,-25 -51,-24 -133,-28l-33 75z"/>
   <path class="fil2" d="M4584 8649c-10,136 -30,154 104,155 135,0 122,-18 106,-163l-210 8z"/>
   <path class="fil6" d="M5150 3841c-57,70 -9,152 52,211 277,-87 99,-218 -52,-211z"/>
   <path class="fil7" d="M3707 2229l-15 -20 -62 -25c-63,20 -139,67 -116,142 68,-57 -3,-43 103,-78 -37,236 -44,189 77,342 3,-4 9,-13 10,-11l19 -48 -29 -71c-11,-57 -17,-181 -48,-235l15 -31c7,-2 23,12 31,15l15 20 24 50 -24 -50zm8 -9l31 47 -31 -47zm-54 -52l15 17 -15 -17z"/>
   <path class="fil1" d="M4500 7275l-15 -231c-48,-31 -49,-21 -127,-16l9 8 -46 30 189 315 -10 -106z"/>
   <path class="fil4" d="M3992 2127c77,-8 130,-30 215,-12 98,21 93,70 186,13 -4,-26 21,-37 -74,-70 -36,-13 -83,-25 -126,-27 -56,-2 -140,15 -176,50 -25,25 -13,8 -25,46z"/>
   <path class="fil4" d="M4970 2108c68,88 88,38 185,11 97,-28 140,1 226,5 -29,-72 -122,-95 -197,-93 -79,2 -170,33 -214,77z"/>
   <path class="fil2" d="M4927 5994l29 281c49,-40 41,-47 73,-99l45 -224 -147 42z"/>
   <path class="fil2" d="M4344 6143c27,55 53,102 73,166l27 -7 4 20 37 8 -41 -28c-36,-96 23,-210 -3,-292l-66 -28 -68 -30 37 191z"/>
   <path class="fil7" d="M3901 1864c36,-54 19,-74 24,-131 39,-33 61,-43 117,-68 81,-35 55,-26 137,-11l45 -74c-116,-56 -132,-32 -233,35 -145,98 -75,48 -90,249z"/>
   <path class="fil4" d="M3723 2531l68 -80 -5 -41 -14 -25 -41 -106 -24 -50 -15 -20c-8,-3 -24,-17 -31,-15l-15 31c31,54 37,178 48,235l29 71z"/>
   <path class="fil4" d="M5697 2218l-2 18 -19 14 -52 141c-13,83 7,95 44,140 49,-26 26,-29 46,-166 10,-67 38,-133 21,-161l-21 -2c7,28 12,22 -17,16z"/>
   <path class="fil1" d="M4854 6575l7 45 -2 29 17 31 0 10c80,17 128,4 137,-70l-15 -22c-31,0 -23,6 -16,-26l-20 -30 -3 3c-68,-12 -28,-11 -105,30z"/>
   <path class="fil1" d="M4405 6545c11,34 22,31 -10,27 8,32 15,25 -16,25l-2 -5 -21 35c45,58 62,82 147,65l25 -115 -123 -32z"/>
   <path class="fil1" d="M4729 6807c113,16 192,-29 83,-135 -48,2 -52,11 -82,30l-1 105z"/>
   <path class="fil1" d="M4540 6686l-12 47c-1,14 -30,80 68,80 102,0 0,6 53,-15l-4 -103 -86 -35c12,34 18,26 -19,26z"/>
   <path class="fil9" d="M5586 4423l-3 -9 -31 -44c-34,-59 -89,-95 -96,-149 -39,-22 -34,-36 -93,-68l-8 10c44,55 24,8 52,74l74 127c45,41 36,3 105,59z"/>
   <path class="fil1" d="M695 3516c13,6 -17,13 47,14 85,0 14,-1 44,-19 42,-126 -139,-135 -91,5z"/>
   <path class="fil1" d="M2003 4643c-47,-55 -109,-47 -100,16 9,57 74,65 100,-16z"/>
   <path class="fil12" d="M4735 5973c58,10 39,19 74,-35 21,-32 23,-46 29,-86 -58,34 -91,41 -103,121z"/>
   <path class="fil1" d="M335 4623c-35,67 -3,90 64,62 2,-5 5,-16 5,-13 0,2 4,-11 4,-13 -2,-26 -5,-50 -35,-48 -26,3 -26,6 -38,12z"/>
   <path class="fil4" d="M6725 1998c52,-9 47,-48 57,-95l-14 -16c-54,41 -26,13 -60,77l17 34z"/>
   <path class="fil4" d="M7534 3630c-21,-56 -62,-63 -119,-64l-5 41 124 23z"/>
   <path class="fil15" d="M4267 4258c112,-56 81,-52 54,-105 -39,29 -21,0 -42,46 -5,12 -9,43 -12,59z"/>
   <path class="fil4" d="M2126 2661c14,-75 5,-79 -46,-103 -15,48 -10,78 46,103z"/>
   <path class="fil1" d="M7473 2750c56,-18 66,3 31,-68 -68,11 -64,6 -31,68z"/>
   <path class="fil1" d="M1312 3503l27 -7c2,-24 16,-53 -27,-54 -43,-1 -27,14 -37,45 25,20 0,9 37,16z"/>
   <path class="fil1" d="M1146 3508c101,-43 20,-63 19,-65 -94,39 -19,65 -19,65z"/>
   <path class="fil1" d="M1037 3447c-27,1 -23,-11 -64,22 16,15 -32,51 41,34 45,-10 17,-2 23,-56z"/>
   <path class="fil1" d="M1442 3453c-47,48 8,52 48,50 -1,-35 -7,-92 -48,-50z"/>
   <path class="fil1" d="M8310 2716c20,29 61,67 61,0 0,-54 -53,-40 -61,0z"/>
   <path class="fil1" d="M7631 2819c-47,-48 -45,22 -50,51 28,-5 97,-4 50,-51z"/>
   <path class="fil5" d="M8187 1982c29,44 -5,27 56,30 26,-101 3,-32 -8,-58 -25,2 -43,0 -48,28z"/>
   <path class="fil1" d="M8199 2828c-31,63 6,30 13,42 21,-11 93,-35 15,-56 -57,-15 -21,0 -28,14z"/>
   <path class="fil5" d="M8309 2092c16,45 5,36 50,45l16 -52c-48,-10 -29,-27 -66,7z"/>
   <path class="fil1" d="M7497 2137c11,-21 42,28 12,-39 -16,-37 6,-7 -31,-22 -40,63 -36,38 19,61z"/>
   <path class="fil1" d="M7503 2870c1,-49 6,-28 -25,-53 -53,29 -32,-3 -24,61l49 -8z"/>
   <path class="fil1" d="M7449 1993l58 3c-9,-65 12,-20 -29,-57 -41,32 -33,-12 -29,54z"/>
   <path class="fil1" d="M8324 1982c62,41 35,31 61,-18 -19,-11 26,-42 -38,-13 -62,27 11,-5 -23,31z"/>
   <path class="fil1" d="M7579 1982c27,42 -2,33 50,24 1,-4 6,-14 5,-11 0,2 3,-10 3,-12l-6 -26c-30,-1 -47,-3 -52,25z"/>
   <path class="fil1" d="M8329 2875c87,5 21,8 51,-16 3,-26 -10,-39 -34,-33 -21,27 -30,-42 -17,49z"/>
   <path class="fil2" d="M1436 4011l52 1 6 -31c-27,-17 41,-22 -34,-12l-24 42z"/>
   <path class="fil16 str0" d="M3958 4796c525,-117 1017,-115 1475,6"/>
   <path class="fil16 str0" d="M4008 5319c462,154 931,151 1407,-8"/>
   <path class="fil16 str0" d="M4009 4935c580,18 1047,17 1403,-6"/>
   <path class="fil16 str0" d="M4030 5204c501,-71 963,-64 1385,20"/>
  </g>
 </g>
</svg>
